^C:\USERS\RUBEN_000\DROPBOX\JAAR 2 MASTER CE\OOSP\FINAL_PROJECT\PART I\PART I - VECTOR CLASS\PART_I.CPP
/c /ZI /nologo /W3 /WX- /sdl /Od /Oy- /D WIN32 /D _DEBUG /D _CONSOLE /D _UNICODE /D UNICODE /Gm /EHsc /RTC1 /MDd /GS /fp:precise /Zc:wchar_t /Zc:forScope /Zc:inline /Fo"DEBUG\\" /Fd"DEBUG\VC140.PDB" /Gd /TP /analyze- C:\USERS\RUBEN_000\DROPBOX\JAAR 2 MASTER CE\OOSP\FINAL_PROJECT\PART I\PART I - VECTOR CLASS\PART_I.CPP
^C:\USERS\RUBEN_000\DROPBOX\JAAR 2 MASTER CE\OOSP\FINAL_PROJECT\PART I - VECTOR CLASS\PART_I.CPP
/c /ZI /nologo /W3 /WX- /sdl /Od /Oy- /D WIN32 /D _DEBUG /D _CONSOLE /D _UNICODE /D UNICODE /Gm /EHsc /RTC1 /MDd /GS /fp:precise /Zc:wchar_t /Zc:forScope /Zc:inline /Fo"DEBUG\\" /Fd"DEBUG\VC140.PDB" /Gd /TP /analyze- C:\USERS\RUBEN_000\DROPBOX\JAAR 2 MASTER CE\OOSP\FINAL_PROJECT\PART I - VECTOR CLASS\PART_I.CPP
